<svg width="21" height="20" viewBox="0 0 21 20" fill="none" xmlns="http://www.w3.org/2000/svg">
<path d="M17.9706 1L19.3848 2.41421L11.799 10L19.7696 17.9706L18.3553 19.3848L10.3848 11.4142L2.41421 19.3848L1 17.9706L8.97056 10L1.38478 2.41421L2.79899 1L10.3848 8.58579L17.9706 1Z" fill="#ffffff"/>
</svg>
